%YAML 1.1
%TAG !u! tag:unity3d.com,2011:
--- !u!114 &11400000
MonoBehaviour:
  m_ObjectHideFlags: 0
  m_CorrespondingSourceObject: {fileID: 0}
  m_PrefabInstance: {fileID: 0}
  m_PrefabAsset: {fileID: 0}
  m_GameObject: {fileID: 0}
  m_Enabled: 1
  m_EditorHideFlags: 0
  m_Script: {fileID: 11500000, guid: 7a28f1ccfe93a2a4287caaf7f47ce9ed, type: 3}
  m_Name: Managers
  m_EditorClassIdentifier: 
  audioMgr: {fileID: 0}
  windowMgr: {fileID: 0}
  emailMgr: {fileID: 0}
  inputMgr: {fileID: 0}
  authorMgr: {fileID: 0}
  levelMgr: {fileID: 0}
  articleMgr: {fileID: 0}
  databaseMgr: {fileID: 0}
